<?xml version="1.0" encoding="utf-8"?>
<svg width="21px" height="24px" viewbox="0 0 21 24" version="1.1" xmlns:xlink="http://www.w3.org/1999/xlink" xmlns="http://www.w3.org/2000/svg">
  <defs>
    <path d="M0 19L22 19L11.7565 0L0 19Z" transform="matrix(-4.371139E-08 -1 1 -4.371139E-08 1 23)" id="path_1" />
    <clipPath id="mask_1">
      <use xlink:href="#path_1" />
    </clipPath>
  </defs>
  <path d="M0 19L22 19L11.7565 0L0 19Z" transform="matrix(-4.371139E-08 -1 1 -4.371139E-08 1 23)" id="Mask-Copy" fill="none" fill-rule="evenodd" stroke="#FFFFFF" stroke-width="2" />
</svg>